<?xml version="1.0" encoding="utf-8"?>
<!-- Generator: Adobe Illustrator 19.0.0, SVG Export Plug-In . SVG Version: 6.00 Build 0)  -->
<svg version="1.1" id="Layer_1" xmlns="http://www.w3.org/2000/svg" xmlns:xlink="http://www.w3.org/1999/xlink" x="0px" y="0px"
	 viewBox="0 0 130 130" style="enable-background:new 0 0 130 130;" xml:space="preserve">
<style type="text/css">
	.st0{fill:#572F90;}
</style>
<path class="st0" d="M77.3,83.3c0,1.6-1.3,2.8-2.8,2.8l-5.5,0c-1.6,0-2.8-1.3-2.8-2.8c0-1.6,1.3-2.8,2.8-2.8l5.5,0
	C76,80.4,77.3,81.7,77.3,83.3z M99.7,48.1c0,1-0.6,1.9-1.4,2.3c-3,1.7-6.3,2.7-10,3.1c-1.5,0.2-2.9-1-3.1-2.5
	c-0.2-1.5,1-2.9,2.5-3.1c1.3-0.1,2.5-0.4,3.7-0.7c-2.5-2.4-4.8-5.3-6.9-8.7c-1.4,6.4-4.9,11.5-9.9,14.5c-3,1.8-6.4,2.7-9.8,2.7
	c-3.4,0-6.8-0.9-9.8-2.7c-5.1-3-8.5-8.2-10-14.6c-2,3.2-4.3,6.2-6.9,8.8c1.1,0.3,2.2,0.5,3.4,0.7c1.5,0.2,2.7,1.6,2.5,3.1
	c-0.2,1.5-1.6,2.7-3.1,2.5c-3.5-0.4-6.7-1.4-9.6-3.1c-0.8-0.5-1.4-1.4-1.4-2.3c0-1,0.4-1.9,1.2-2.4c4.5-3,8.9-8.8,12.1-15.7
	c0.5-1.2,2.2-6.4,2.8-7.6c2.7-6,8.3-9.6,14.2-11c0.7-0.2,3.7-0.4,5-0.4c1.9,0.1,4.2,0.3,5.1,0.6c5.8,1.6,11.1,5.3,13.5,11.4
	c0.4,1.1,2.1,6.1,2.6,7.3c3.1,6.7,7.5,12.3,11.9,15.3C99.2,46.2,99.7,47.1,99.7,48.1z M50,30.5c3.1,0.1,6.1-0.9,8.6-2.8
	c0.7-0.5,1.4-1.2,2.2-2.1c0.1-0.1,0.1-0.2,0.2-0.2c1.6-2,3.1-4.8,3.8-8.9C57.9,16.8,51,20.7,50.1,29C50.1,29.3,50,30.3,50,30.5z
	 M79.3,36.3c-5.9,1-11.9-0.8-16.4-5c-0.3,0.3-0.6,0.5-0.9,0.7c-3.4,2.6-7.5,4-11.6,4c0.9,5.5,3.6,9.8,7.6,12.1
	c4.3,2.5,9.6,2.5,13.8,0C75.7,45.9,78.3,41.7,79.3,36.3z M79.7,30.5c0-0.1,0-0.2,0-0.4c-0.3-6.7-4.4-10.9-9.4-12.6
	c-0.6,3.6-1.9,6.9-3.7,9.6C70.1,30.5,75.1,31.8,79.7,30.5z M89.7,79.8c-2.3-12.6-14.2-18.2-24.9-18.2c0,0,0,0,0,0
	c-10.7,0-22.6,5.7-24.9,18.2l-6.6,35.9c-0.2,0.8,0.1,1.7,0.6,2.3c0.5,0.6,1.3,1,2.2,1h36.8c1.6,0,2.8-1.3,2.8-2.8
	c0-1.6-1.3-2.8-2.8-2.8H39.4l6-32.5c1.7-9.4,11-13.6,19.4-13.6c8.4,0,17.6,4.2,19.4,13.6l6.6,35.9c0.3,1.4,1.4,2.3,2.8,2.3
	c0.2,0,0.3,0,0.5,0c1.5-0.3,2.5-1.8,2.3-3.3L89.7,79.8z"/>
</svg>
